{
    "language": "ru",
    "commands": {
        "mymoney": {
            "usage": "/mymoney",
            "description": "Проверить свой баланс"
        },
        "topmoney": {
            "usage": "/topmoney [страница]",
            "description": "Показать рейтинг богачей сервера"
        },
        "setmoney": {
            "usage": "/setmoney <игрок> <сумма>",
            "description": "Задать для игрока начальную сумму денег (op)"
        },
        "seemoney": {
            "usage": "/seemoney <игрок>",
            "description": "Показать баланс игрока"
        },
        "givemoney": {
            "usage": "/givemoney <игрок> <сумма>",
            "description": "Выдать игроку сумму денег (op)"
        },
        "takemoney": {
            "usage": "/takemoney <игрок> <сумма>",
            "description": "Забрать у игрока сумму денег (op)"
        },
        "pay": {
            "usage": "/pay <игрок> <сумма>",
            "description": "Заплатить игроку сумму денег"
        },
        "setlang": {
            "usage": "/setlang <язык>",
            "description": "Set your language (Задать свой язык для плагина EconomyAPI) [ru|en|ch|cs|fr|id|it|ja|ko|nl|zh]"
        },
        "mystatus": {
            "usage": "/mystatus",
            "description": "Проверить свой финансовый статус"
        }
    },
    "language-set": "Язык сменен на %1",
    "request-cancelled": "Запрос отменен",
    "player-not-connected": "Игрок %1 оффлайн",
    "player-never-connected": "Игрок %1 никогда не был на сервере",
    "topmoney-format": "[%1] %2: %3",
    "pay-failed": "Не удалось передать деньги",
    "pay-success": "Игроку %2 выплачено %MONETARY_UNIT%%1",
    "takemoney-must-be-number": "Сумма должна быть числом",
    "takemoney-invalid-number": "Неправильное число",
    "takemoney-player-lack-of-money": "У игрока %1 нет %MONETARY_UNIT%%2. Баланс %1 : %MONETARY_UNIT%%3",
    "takemoney-money-taken": "У вас было взято %MONETARY_UNIT%%1",
    "takemoney-took-money": "У игрока %1 было взято %MONETARY_UNIT%%2",
    "takemoney-failed": "Не удалось взять деньги",
    "givemoney-must-be-number": "Сумма должна быть числом",
    "givemoney-invalid-number": "Неправильное число",
    "givemoney-money-given": "Вы получили %MONETARY_UNIT%%1",
    "givemoney-gave-money": "Игроку %2 было выдано %MONETARY_UNIT%%1",
    "seemoney-seemoney": "Баланс игрока %1 : %2",
    "setmoney-setmoney": "Баланс игрока %1 был установлен на %MONETARY_UNIT%%2",
    "setmoney-set": "Ваш баланс был изменен на %MONETARY_UNIT%%1",
    "setmoney-failed": "Не удалось установить баланс",
    "setmoney-invalid-number": "MONETARY_UNIT%%1 - неправильная сумма",
    "mymoney-mymoney": "Ваш баланс : %MONETARY_UNIT%%1",
    "mystatus-show": "Ваш финансовый статус : %1%"
}
